<svg width="14" height="13" viewBox="0 0 14 13" fill="none" xmlns="http://www.w3.org/2000/svg">
<path d="M10.8338 6.89648C9.18505 6.89648 7.84814 8.23382 7.84814 9.88219C7.84814 11.5301 9.18505 12.8667 10.8338 12.8667C12.4818 12.8667 13.8187 11.5302 13.8187 9.88219C13.8187 8.2338 12.4818 6.89648 10.8338 6.89648ZM11.0254 12.0887V11.831C11.0254 11.7243 10.9394 11.6382 10.8338 11.6382C10.7272 11.6382 10.6414 11.7246 10.6414 11.831V12.0887C9.57247 11.9968 8.71857 11.1427 8.62665 10.0739H8.88521C8.99082 10.0739 9.07719 9.98793 9.07719 9.88237C9.07719 9.77494 8.99082 9.68997 8.88521 9.68997H8.62665C8.71855 8.62079 9.57266 7.76752 10.6414 7.6752V7.93335C10.6414 8.03957 10.7274 8.12575 10.8338 8.12575C10.9394 8.12575 11.0254 8.03936 11.0254 7.93335V7.6752C12.0948 7.76752 12.9487 8.62079 13.0402 9.68997H12.7816C12.6754 9.68997 12.5896 9.77512 12.5896 9.88237C12.5896 9.98818 12.6756 10.0739 12.7816 10.0739H13.0402C12.9489 11.1427 12.0948 11.9966 11.0254 12.0887Z" fill="#1B274B"/>
<path d="M11.9462 9.59369H11.2537C11.1613 9.46054 11.008 9.37212 10.834 9.37212C10.8313 9.37212 10.8284 9.37293 10.8254 9.37293L10.1943 8.4845C10.1024 8.35521 9.92227 8.3252 9.79257 8.41669C9.66328 8.50902 9.63223 8.68955 9.72476 8.81925L10.3563 9.70806C10.3369 9.76259 10.3244 9.8206 10.3244 9.88249C10.3244 10.1639 10.5521 10.3916 10.834 10.3916C11.008 10.3916 11.1622 10.304 11.2537 10.1704H11.9462C12.1051 10.1704 12.2344 10.042 12.2344 9.88269C12.2344 9.72258 12.1051 9.59369 11.9462 9.59369Z" fill="#1B274B"/>
<path d="M2.87329 3.9405C3.39572 3.9405 3.81848 3.51733 3.81848 2.99551V0.944989C3.81848 0.422966 3.39572 0 2.87329 0C2.35127 0 1.92871 0.422966 1.92871 0.944989V2.99571C1.92871 3.51733 2.35125 3.9405 2.87329 3.9405Z" fill="#1B274B"/>
<path d="M8.66087 3.9405C9.18332 3.9405 9.60606 3.51733 9.60606 2.99551V0.944989C9.60606 0.422966 9.1833 0 8.66087 0C8.13925 0 7.71631 0.422966 7.71631 0.944989V2.99571C7.71608 3.51733 8.13927 3.9405 8.66087 3.9405Z" fill="#1B274B"/>
<path d="M4.15353 6.56448C4.15353 6.2947 3.93541 6.07617 3.66499 6.07617H2.75943C2.48965 6.07617 2.27051 6.2947 2.27051 6.56448V7.46966C2.27051 7.73985 2.48965 7.95901 2.75943 7.95901H3.66499C3.93518 7.95901 4.15353 7.73985 4.15353 7.46966V6.56448Z" fill="#1B274B"/>
<path d="M6.70918 6.56477C6.70918 6.29498 6.49045 6.07666 6.22127 6.07666H5.31528C5.0455 6.07666 4.82715 6.29498 4.82715 6.56477V7.47015C4.82715 7.73953 5.04547 7.95869 5.31528 7.95869H6.22127C6.49065 7.95869 6.70918 7.73953 6.70918 7.47015V6.56477Z" fill="#1B274B"/>
<path d="M7.87029 6.07617C7.60008 6.07617 7.38135 6.2947 7.38135 6.56448V7.46966C7.38135 7.71411 7.56352 7.90692 7.79718 7.94348C8.15538 7.38551 8.66271 6.93373 9.26338 6.64168V6.56448C9.26338 6.2947 9.04505 6.07617 8.77484 6.07617H7.87029Z" fill="#1B274B"/>
<path d="M2.75994 8.5293C2.49016 8.5293 2.271 8.74762 2.271 9.01741V9.92297C2.271 10.1928 2.49016 10.4111 2.75994 10.4111H3.66593C3.93572 10.4111 4.15384 10.1928 4.15384 9.92297V9.01741C4.15384 8.74762 3.93572 8.5293 3.66593 8.5293H2.75994Z" fill="#1B274B"/>
<path d="M6.21993 8.52979H5.31477C5.04498 8.52979 4.82666 8.74854 4.82666 9.01832V9.92307C4.82666 10.1929 5.04498 10.4112 5.31477 10.4112H6.21993C6.4893 10.4112 6.70806 10.1929 6.70806 9.92307V9.01832C6.70806 8.74852 6.4893 8.52979 6.21993 8.52979Z" fill="#1B274B"/>
<path d="M7.54029 11.3469H2.94608C2.15529 11.3469 1.51174 10.7033 1.51174 9.91336V5.11487H10.0234V6.37049C10.2842 6.31045 10.5544 6.27531 10.834 6.27531C11.0738 6.27531 11.3078 6.30004 11.5347 6.34518V1.83203H10.1733V2.99575C10.1733 3.82942 9.49543 4.50749 8.66113 4.50749C7.82725 4.50749 7.14941 3.82944 7.14941 2.99575V1.83203H4.3853V2.99575C4.3853 3.82942 3.70702 4.50749 2.87315 4.50749C2.03966 4.50749 1.36141 3.82944 1.36141 2.99575V1.83203H0V9.91315C0 11.5397 1.31893 12.8592 2.94608 12.8592H8.58844C8.65544 12.8592 8.7216 12.8537 8.78737 12.8494C8.24532 12.4748 7.81233 11.955 7.54029 11.3469Z" fill="#1B274B"/>
</svg>
