<svg width="16" height="13" viewBox="0 0 16 13" fill="none" xmlns="http://www.w3.org/2000/svg">
<path d="M14.4475 0H1.39215C0.625479 0 0 0.624798 0 1.39215V10.6732C0 11.4379 0.622694 12.0653 1.39215 12.0653H14.4475C15.2122 12.0653 15.8396 11.4426 15.8396 10.6732V1.39215C15.8396 0.627397 15.2169 0 14.4475 0ZM14.2552 0.928102L7.94932 7.23403L1.58888 0.928102H14.2552ZM0.928102 10.481V1.57991L5.39781 6.01129L0.928102 10.481ZM1.58436 11.1372L6.05689 6.6647L7.62405 8.2184C7.80546 8.39827 8.09821 8.39768 8.27888 8.21698L9.80694 6.68892L14.2552 11.1372H1.58436ZM14.9115 10.481L10.4632 6.03266L14.9115 1.58433V10.481Z" fill="#1B274B"/>
</svg>
