<svg width="10" height="13" viewBox="0 0 10 13" fill="none" xmlns="http://www.w3.org/2000/svg">
<path d="M4.84783 0C2.1747 0 0 2.17558 0 4.84976C0 8.83411 4.36529 12.7245 4.55119 12.8882C4.63593 12.9628 4.74186 13.0002 4.84783 13.0002C4.9538 13.0002 5.05973 12.9629 5.14452 12.8882C5.33033 12.7245 9.69566 8.83415 9.69566 4.84976C9.69566 2.17558 7.52096 0 4.84783 0ZM4.84783 11.936C3.88271 11.0008 0.897755 7.864 0.897755 4.84976C0.897755 2.67063 2.66976 0.897755 4.84783 0.897755C7.0259 0.897755 8.79791 2.67063 8.79791 4.84976C8.79791 7.86396 5.81295 11.0008 4.84783 11.936Z" fill="#1B274B"/>
<path d="M4.84786 2.59045C3.61031 2.59045 2.60352 3.60394 2.60352 4.84968C2.60352 6.09546 3.61031 7.1089 4.84786 7.1089C6.08541 7.1089 7.0922 6.09546 7.0922 4.84968C7.0922 3.60394 6.08541 2.59045 4.84786 2.59045ZM4.84786 6.21115C4.10532 6.21115 3.50123 5.6004 3.50123 4.84968C3.50123 4.099 4.10532 3.48821 4.84786 3.48821C5.5904 3.48821 6.19449 4.09895 6.19449 4.84968C6.19449 5.6004 5.5904 6.21115 4.84786 6.21115Z" fill="#1B274B"/>
</svg>
