<svg width="14" height="13" viewBox="0 0 14 13" fill="none" xmlns="http://www.w3.org/2000/svg">
<path d="M10.8341 6.89673C9.1853 6.89673 7.84839 8.23406 7.84839 9.88244C7.84839 11.5304 9.1853 12.8669 10.8341 12.8669C12.482 12.8669 13.8189 11.5304 13.8189 9.88244C13.8189 8.23404 12.482 6.89673 10.8341 6.89673ZM11.0256 12.089V11.8312C11.0256 11.7246 10.9397 11.6384 10.8341 11.6384C10.7275 11.6384 10.6417 11.7248 10.6417 11.8312V12.089C9.57272 11.9971 8.71882 11.143 8.6269 10.0742H8.88546C8.99106 10.0742 9.07743 9.98818 9.07743 9.88262C9.07743 9.77518 8.99106 9.69021 8.88546 9.69021H8.6269C8.7188 8.62104 9.5729 7.76777 10.6417 7.67544V7.93359C10.6417 8.03981 10.7277 8.126 10.8341 8.126C10.9397 8.126 11.0256 8.03961 11.0256 7.93359V7.67544C12.095 7.76777 12.9489 8.62104 13.0404 9.69021H12.7819C12.6757 9.69021 12.5899 9.77536 12.5899 9.88262C12.5899 9.98843 12.6759 10.0742 12.7819 10.0742H13.0404C12.9491 11.1429 12.095 11.9968 11.0256 12.089Z" fill="#1B274B"/>
<path d="M11.9462 9.59381H11.2537C11.1613 9.46066 11.008 9.37224 10.834 9.37224C10.8313 9.37224 10.8284 9.37305 10.8254 9.37305L10.1943 8.48462C10.1024 8.35533 9.92227 8.32532 9.79257 8.41682C9.66328 8.50914 9.63223 8.68967 9.72476 8.81937L10.3563 9.70818C10.3369 9.76271 10.3244 9.82072 10.3244 9.88261C10.3244 10.164 10.5521 10.3918 10.834 10.3918C11.008 10.3918 11.1622 10.3042 11.2537 10.1706H11.9462C12.1051 10.1706 12.2344 10.0421 12.2344 9.88281C12.2344 9.7227 12.1051 9.59381 11.9462 9.59381Z" fill="#1B274B"/>
<path d="M2.87317 3.9405C3.3956 3.9405 3.81836 3.51733 3.81836 2.99551V0.944989C3.81836 0.422966 3.3956 0 2.87317 0C2.35115 0 1.92859 0.422966 1.92859 0.944989V2.99571C1.92859 3.51733 2.35113 3.9405 2.87317 3.9405Z" fill="#1B274B"/>
<path d="M8.66111 3.9405C9.18357 3.9405 9.60631 3.51733 9.60631 2.99551V0.944989C9.60631 0.422966 9.18354 0 8.66111 0C8.1395 0 7.71655 0.422966 7.71655 0.944989V2.99571C7.71633 3.51733 8.13952 3.9405 8.66111 3.9405Z" fill="#1B274B"/>
<path d="M4.15365 6.56436C4.15365 6.29458 3.93553 6.07605 3.66512 6.07605H2.75955C2.48977 6.07605 2.27063 6.29458 2.27063 6.56436V7.46954C2.27063 7.73973 2.48977 7.95889 2.75955 7.95889H3.66512C3.93531 7.95889 4.15365 7.73973 4.15365 7.46954V6.56436Z" fill="#1B274B"/>
<path d="M6.70893 6.56489C6.70893 6.29511 6.4902 6.07678 6.22103 6.07678H5.31504C5.04525 6.07678 4.8269 6.29511 4.8269 6.56489V7.47027C4.8269 7.73965 5.04523 7.95881 5.31504 7.95881H6.22103C6.49041 7.95881 6.70893 7.73965 6.70893 7.47027V6.56489Z" fill="#1B274B"/>
<path d="M7.87017 6.07605C7.59996 6.07605 7.38123 6.29458 7.38123 6.56436V7.46954C7.38123 7.71399 7.5634 7.9068 7.79706 7.94336C8.15526 7.38539 8.66259 6.93361 9.26325 6.64156V6.56436C9.26325 6.29458 9.04493 6.07605 8.77472 6.07605H7.87017Z" fill="#1B274B"/>
<path d="M2.7597 8.52954C2.48991 8.52954 2.27075 8.74787 2.27075 9.01765V9.92321C2.27075 10.193 2.48991 10.4113 2.7597 10.4113H3.66569C3.93547 10.4113 4.15359 10.193 4.15359 9.92321V9.01765C4.15359 8.74787 3.93547 8.52954 3.66569 8.52954H2.7597Z" fill="#1B274B"/>
<path d="M6.22005 8.53003H5.31489C5.04511 8.53003 4.82678 8.74878 4.82678 9.01857V9.92332C4.82678 10.1931 5.04511 10.4114 5.31489 10.4114H6.22005C6.48943 10.4114 6.70818 10.1931 6.70818 9.92332V9.01857C6.70818 8.74876 6.48943 8.53003 6.22005 8.53003Z" fill="#1B274B"/>
<path d="M7.54029 11.3467H2.94608C2.15529 11.3467 1.51174 10.7032 1.51174 9.91323V5.11475H10.0234V6.37037C10.2842 6.31033 10.5544 6.27519 10.834 6.27519C11.0738 6.27519 11.3078 6.29992 11.5347 6.34506V1.83191H10.1733V2.99563C10.1733 3.8293 9.49543 4.50737 8.66113 4.50737C7.82725 4.50737 7.14941 3.82932 7.14941 2.99563V1.83191H4.3853V2.99563C4.3853 3.8293 3.70702 4.50737 2.87315 4.50737C2.03966 4.50737 1.36141 3.82932 1.36141 2.99563V1.83191H0V9.91303C0 11.5395 1.31893 12.8591 2.94608 12.8591H8.58844C8.65544 12.8591 8.7216 12.8536 8.78737 12.8493C8.24532 12.4747 7.81233 11.9549 7.54029 11.3467Z" fill="#1B274B"/>
</svg>
